<?xml version="1.0" encoding="utf-8"?>
<!-- Generator: Adobe Illustrator 22.0.0, SVG Export Plug-In . SVG Version: 6.00 Build 0)  -->
<svg version="1.1" id="Capa_1" xmlns="http://www.w3.org/2000/svg" xmlns:xlink="http://www.w3.org/1999/xlink" x="0px" y="0px"
	 viewBox="0 0 512 512" style="enable-background:new 0 0 512 512;" xml:space="preserve">
<style type="text/css">
	.st0{fill:#B3B2B2;}
</style>
<g>
	<path class="st0" d="M110.1,256c0-9.2,3.5-18.3,10.5-25.3L340.7,10.5c14-14,36.7-14,50.7,0c14,14,14,36.7,0,50.7L196.6,256
		l194.8,194.8c14,14,14,36.7,0,50.7c-14,14-36.7,14-50.7,0L120.6,281.3C113.6,274.3,110.1,265.2,110.1,256z"/>
</g>
</svg>
