<?xml version="1.0" encoding="iso-8859-1"?>
<!-- Generator: Adobe Illustrator 18.0.0, SVG Export Plug-In . SVG Version: 6.00 Build 0)  -->
<!DOCTYPE svg PUBLIC "-//W3C//DTD SVG 1.1//EN" "http://www.w3.org/Graphics/SVG/1.1/DTD/svg11.dtd">
<svg version="1.1" id="Camada_1" xmlns="http://www.w3.org/2000/svg" xmlns:xlink="http://www.w3.org/1999/xlink" x="0px" y="0px"
	 viewBox="0 0 97 31.333" style="enable-background:new 0 0 97 31.333;" xml:space="preserve">
<g>
	<g>
		<path style="fill:#12100B;" d="M91.01,29.916H5.48c-1.882,0-3.421-1.54-3.421-3.421V5.967c0-1.882,1.54-3.421,3.421-3.421h85.53
			c1.882,0,3.421,1.539,3.421,3.421v20.527C94.431,28.376,92.892,29.916,91.01,29.916z"/>
	</g>
	<path style="fill:#FFFFFF;" d="M48.68,17.429c-1.61,0-2.921,1.224-2.921,2.91c0,1.676,1.312,2.91,2.921,2.91
		c1.609,0,2.921-1.235,2.921-2.91C51.601,18.653,50.289,17.429,48.68,17.429z M48.68,22.103c-0.882,0-1.642-0.728-1.642-1.764
		c0-1.047,0.761-1.764,1.642-1.764s1.643,0.716,1.643,1.764C50.322,21.376,49.562,22.103,48.68,22.103z M42.307,17.429
		c-1.609,0-2.921,1.224-2.921,2.91c0,1.676,1.312,2.91,2.921,2.91c1.609,0,2.921-1.235,2.921-2.91
		C45.228,18.653,43.917,17.429,42.307,17.429z M42.307,22.103c-0.882,0-1.643-0.728-1.643-1.764c0-1.047,0.761-1.764,1.643-1.764
		c0.882,0,1.642,0.716,1.642,1.764C43.95,21.376,43.189,22.103,42.307,22.103z M34.727,18.322v1.234h2.954
		c-0.088,0.695-0.32,1.202-0.672,1.554c-0.43,0.43-1.102,0.904-2.282,0.904c-1.819,0-3.241-1.466-3.241-3.285
		c0-1.819,1.422-3.285,3.241-3.285c0.981,0,1.698,0.386,2.227,0.882l0.871-0.871c-0.739-0.705-1.72-1.246-3.098-1.246
		c-2.491,0-4.586,2.028-4.586,4.52c0,2.491,2.094,4.52,4.586,4.52c1.345,0,2.359-0.441,3.153-1.268
		c0.816-0.816,1.069-1.962,1.069-2.888c0-0.287-0.022-0.551-0.066-0.772H34.727z M65.728,19.281
		c-0.243-0.65-0.981-1.852-2.491-1.852c-1.499,0-2.745,1.179-2.745,2.91c0,1.632,1.235,2.91,2.888,2.91
		c1.334,0,2.105-0.816,2.425-1.29l-0.992-0.661c-0.331,0.485-0.783,0.805-1.433,0.805c-0.65,0-1.113-0.298-1.411-0.882l3.891-1.609
		L65.728,19.281z M61.76,20.251c-0.033-1.124,0.871-1.698,1.521-1.698c0.507,0,0.937,0.253,1.08,0.617L61.76,20.251z M58.596,23.073
		h1.279v-8.554h-1.279V23.073z M56.502,18.08h-0.044c-0.287-0.342-0.838-0.65-1.532-0.65c-1.455,0-2.789,1.279-2.789,2.921
		c0,1.632,1.334,2.899,2.789,2.899c0.694,0,1.246-0.309,1.532-0.661h0.044v0.419c0,1.113-0.595,1.709-1.554,1.709
		c-0.783,0-1.268-0.562-1.466-1.036l-1.113,0.463c0.32,0.772,1.168,1.72,2.579,1.72c1.499,0,2.767-0.882,2.767-3.032v-5.225h-1.213
		V18.08z M55.036,22.103c-0.882,0-1.62-0.739-1.62-1.753c0-1.025,0.739-1.775,1.62-1.775c0.871,0,1.554,0.75,1.554,1.775
		C56.59,21.365,55.907,22.103,55.036,22.103z M71.718,14.519h-3.059v8.554h1.277v-3.241h1.783c1.415,0,2.806-1.024,2.806-2.656
		C74.524,15.544,73.134,14.519,71.718,14.519z M71.751,18.642h-1.816V15.71h1.816c0.955,0,1.497,0.79,1.497,1.466
		C73.248,17.839,72.706,18.642,71.751,18.642z M79.642,17.414c-0.924,0-1.882,0.407-2.278,1.31l1.133,0.473
		c0.242-0.473,0.693-0.627,1.166-0.627c0.66,0,1.332,0.396,1.343,1.1v0.088c-0.231-0.132-0.726-0.33-1.332-0.33
		c-1.221,0-2.465,0.671-2.465,1.926c0,1.144,1.001,1.882,2.124,1.882c0.858,0,1.332-0.385,1.629-0.836h0.044v0.66h1.233v-3.28
		C82.239,18.261,81.105,17.414,79.642,17.414z M79.488,22.102c-0.418,0-1.001-0.209-1.001-0.726c0-0.66,0.726-0.913,1.354-0.913
		c0.561,0,0.825,0.121,1.167,0.286C80.907,21.54,80.225,22.102,79.488,22.102z M86.729,17.601l-1.464,3.709h-0.044l-1.519-3.709
		h-1.376l2.278,5.183l-1.299,2.883h1.332l3.511-8.066H86.729z M75.229,23.073h1.277v-8.554h-1.277V23.073z"/>
	<g>
		<g>
			<g>
				<path style="fill:#70C9F3;" d="M9.198,7.71C8.999,7.92,8.882,8.247,8.882,8.671v15.12c0,0.423,0.117,0.75,0.316,0.961
					l0.051,0.049l8.47-8.47v-0.1v-0.1l-8.47-8.47L9.198,7.71z"/>
				<linearGradient id="SVGID_2_" gradientUnits="userSpaceOnUse" x1="23.3305" y1="16.2309" x2="6.7878" y2="16.2309">
					<stop  offset="0" style="stop-color:#FFE000"/>
					<stop  offset="0.1941" style="stop-color:#FED000"/>
					<stop  offset="0.5469" style="stop-color:#F9B400"/>
					<stop  offset="0.8279" style="stop-color:#F6A200"/>
					<stop  offset="1" style="stop-color:#F59B00"/>
				</linearGradient>
				<path style="fill:url(#SVGID_2_);" d="M20.542,19.155l-2.823-2.825v-0.1v-0.1l2.824-2.824l0.064,0.036l3.345,1.901
					c0.955,0.543,0.955,1.431,0,1.974l-3.345,1.901L20.542,19.155z"/>
				<linearGradient id="SVGID_4_" gradientUnits="userSpaceOnUse" x1="19.0375" y1="17.7998" x2="3.478" y2="33.3592">
					<stop  offset="0" style="stop-color:#E7383D"/>
					<stop  offset="1" style="stop-color:#C81166"/>
				</linearGradient>
				<path style="fill:url(#SVGID_4_);" d="M20.606,19.118l-2.888-2.888l-8.521,8.521c0.315,0.333,0.835,0.375,1.421,0.042
					L20.606,19.118"/>
				<linearGradient id="SVGID_5_" gradientUnits="userSpaceOnUse" x1="3.4088" y1="-0.9671" x2="16.1126" y2="11.7367">
					<stop  offset="0" style="stop-color:#229966"/>
					<stop  offset="0.3168" style="stop-color:#4EA663"/>
					<stop  offset="0.7398" style="stop-color:#70B65D"/>
					<stop  offset="1" style="stop-color:#7CBC5B"/>
				</linearGradient>
				<path style="fill:url(#SVGID_5_);" d="M20.607,13.343l-9.987-5.675C10.033,7.335,9.513,7.377,9.198,7.71l8.521,8.521
					L20.607,13.343z"/>
			</g>
		</g>
	</g>
	<g>
		<path style="fill:#FFFFFF;stroke:#FFFFFF;stroke-width:0.1368;stroke-miterlimit:10;" d="M30.343,11.441V7.336h1.256
			c0.631,0,1.135,0.19,1.514,0.571c0.378,0.38,0.567,0.874,0.567,1.482c0,0.608-0.189,1.102-0.567,1.482
			c-0.379,0.381-0.883,0.571-1.514,0.571H30.343z M30.871,10.937h0.728c0.474,0,0.849-0.136,1.127-0.407
			c0.277-0.271,0.416-0.652,0.416-1.141c0-0.486-0.138-0.865-0.416-1.138c-0.277-0.273-0.653-0.41-1.127-0.41h-0.728V10.937z"/>
		<path style="fill:#FFFFFF;stroke:#FFFFFF;stroke-width:0.1368;stroke-miterlimit:10;" d="M34.42,11.441V7.336h0.527v4.106H34.42z"
			/>
		<path style="fill:#FFFFFF;stroke:#FFFFFF;stroke-width:0.1368;stroke-miterlimit:10;" d="M37.046,11.533
			c-0.298,0-0.589-0.097-0.874-0.292c-0.285-0.195-0.472-0.468-0.559-0.82l0.482-0.195c0.057,0.226,0.174,0.416,0.352,0.57
			c0.178,0.155,0.378,0.232,0.599,0.232c0.229,0,0.426-0.06,0.588-0.181c0.162-0.12,0.243-0.284,0.243-0.49
			c0-0.229-0.081-0.406-0.243-0.53c-0.162-0.124-0.42-0.24-0.771-0.347c-0.363-0.114-0.639-0.263-0.826-0.444
			c-0.187-0.181-0.281-0.414-0.281-0.697c0-0.294,0.117-0.55,0.35-0.768c0.233-0.218,0.537-0.327,0.911-0.327
			c0.348,0,0.631,0.087,0.849,0.261c0.218,0.174,0.359,0.364,0.424,0.571l-0.481,0.2c-0.035-0.13-0.12-0.25-0.255-0.361
			c-0.136-0.11-0.311-0.166-0.525-0.166c-0.202,0-0.375,0.056-0.518,0.169c-0.144,0.113-0.215,0.253-0.215,0.421
			c0,0.153,0.066,0.282,0.198,0.387c0.132,0.105,0.326,0.2,0.582,0.284c0.202,0.065,0.371,0.128,0.508,0.189
			c0.136,0.061,0.273,0.142,0.412,0.244c0.14,0.101,0.244,0.228,0.315,0.379c0.071,0.151,0.106,0.326,0.106,0.524
			c0,0.199-0.041,0.377-0.123,0.533c-0.082,0.157-0.192,0.281-0.327,0.373c-0.136,0.092-0.281,0.161-0.438,0.209
			C37.371,11.509,37.211,11.533,37.046,11.533z"/>
		<path style="fill:#FFFFFF;stroke:#FFFFFF;stroke-width:0.1368;stroke-miterlimit:10;" d="M39.701,11.441h-0.527V7.336h1.399
			c0.347,0,0.649,0.116,0.903,0.347c0.255,0.231,0.382,0.523,0.382,0.875c0,0.351-0.127,0.643-0.382,0.874
			c-0.254,0.232-0.555,0.347-0.903,0.347h-0.872V11.441z M39.701,9.273h0.883c0.222,0,0.4-0.074,0.533-0.223
			c0.134-0.149,0.201-0.313,0.201-0.493c0-0.18-0.067-0.344-0.201-0.493c-0.134-0.149-0.311-0.224-0.533-0.224h-0.883V9.273z"/>
		<path style="fill:#FFFFFF;stroke:#FFFFFF;stroke-width:0.1368;stroke-miterlimit:10;" d="M45.879,10.91
			c-0.404,0.415-0.905,0.622-1.506,0.622c-0.6,0-1.102-0.207-1.505-0.622c-0.404-0.415-0.605-0.922-0.605-1.522
			c0-0.6,0.201-1.108,0.605-1.522c0.403-0.415,0.905-0.622,1.505-0.622c0.597,0,1.097,0.208,1.503,0.625
			c0.405,0.417,0.607,0.923,0.607,1.519C46.484,9.988,46.282,10.496,45.879,10.91z M43.258,10.567
			c0.304,0.308,0.676,0.461,1.115,0.461s0.812-0.154,1.115-0.461c0.304-0.308,0.456-0.701,0.456-1.178
			c0-0.478-0.152-0.871-0.456-1.178c-0.303-0.308-0.675-0.461-1.115-0.461s-0.811,0.154-1.115,0.461
			c-0.303,0.308-0.456,0.701-0.456,1.178C42.803,9.866,42.955,10.259,43.258,10.567z"/>
		<path style="fill:#FFFFFF;stroke:#FFFFFF;stroke-width:0.1368;stroke-miterlimit:10;" d="M47.224,11.441V7.336h0.642l1.995,3.194
			h0.023l-0.023-0.791V7.336h0.528v4.106h-0.551l-2.087-3.348h-0.023l0.023,0.791v2.557H47.224z"/>
		<path style="fill:#FFFFFF;stroke:#FFFFFF;stroke-width:0.1368;stroke-miterlimit:10;" d="M51.33,11.441V7.336h0.527v4.106H51.33z
			 M51.823,7.015h-0.459l0.299-0.734h0.573L51.823,7.015z"/>
		<path style="fill:#FFFFFF;stroke:#FFFFFF;stroke-width:0.1368;stroke-miterlimit:10;" d="M53.812,11.441l-1.445-4.106h0.585
			l1.124,3.331h0.023l1.17-3.331h0.585l-1.491,4.106H53.812z"/>
		<path style="fill:#FFFFFF;stroke:#FFFFFF;stroke-width:0.1368;stroke-miterlimit:10;" d="M58.846,7.84h-1.87v1.302h1.686v0.493
			h-1.686v1.302h1.87v0.505H56.45V7.336h2.397V7.84z"/>
		<path style="fill:#FFFFFF;stroke:#FFFFFF;stroke-width:0.1368;stroke-miterlimit:10;" d="M59.672,11.441V7.336H60.2v3.601h1.777
			v0.505H59.672z"/>
		<path style="fill:#FFFFFF;stroke:#FFFFFF;stroke-width:0.1368;stroke-miterlimit:10;" d="M64.018,11.441V7.336h0.642l1.995,3.194
			h0.023l-0.023-0.791V7.336h0.528v4.106h-0.551l-2.087-3.348h-0.023l0.023,0.791v2.557H64.018z"/>
		<path style="fill:#FFFFFF;stroke:#FFFFFF;stroke-width:0.1368;stroke-miterlimit:10;" d="M71.482,10.91
			c-0.404,0.415-0.905,0.622-1.506,0.622c-0.6,0-1.102-0.207-1.505-0.622c-0.404-0.415-0.605-0.922-0.605-1.522
			c0-0.6,0.201-1.108,0.605-1.522c0.403-0.415,0.905-0.622,1.505-0.622c0.597,0,1.097,0.208,1.503,0.625
			c0.405,0.417,0.607,0.923,0.607,1.519C72.086,9.988,71.884,10.496,71.482,10.91z M68.861,10.567
			c0.304,0.308,0.675,0.461,1.115,0.461c0.44,0,0.812-0.154,1.115-0.461c0.304-0.308,0.456-0.701,0.456-1.178
			c0-0.478-0.152-0.871-0.456-1.178c-0.303-0.308-0.676-0.461-1.115-0.461c-0.44,0-0.811,0.154-1.115,0.461
			c-0.303,0.308-0.456,0.701-0.456,1.178C68.405,9.866,68.557,10.259,68.861,10.567z"/>
	</g>
</g>
</svg>
