<?xml version="1.0" encoding="utf-8"?>
<!-- Generator: Adobe Illustrator 22.1.0, SVG Export Plug-In . SVG Version: 6.00 Build 0)  -->
<svg version="1.1" id="Camada_1" xmlns="http://www.w3.org/2000/svg" xmlns:xlink="http://www.w3.org/1999/xlink" x="0px" y="0px"
	 viewBox="0 0 49 48.7" style="enable-background:new 0 0 49 48.7;" xml:space="preserve">
<style type="text/css">
	.st0{fill:url(#SVGID_1_);}
	.st1{fill:url(#SVGID_2_);}
	.st2{fill:#EA5B0C;}
	.st3{fill:#010102;}
	.st4{fill:url(#SVGID_3_);}
	.st5{fill:url(#SVGID_4_);}
	.st6{fill:url(#SVGID_5_);}
	.st7{fill:url(#SVGID_6_);}
</style>
<linearGradient id="SVGID_1_" gradientUnits="userSpaceOnUse" x1="16.1663" y1="28.6865" x2="43.6846" y2="28.6865" gradientTransform="matrix(1 0 0 -1 0 55)">
	<stop  offset="0" style="stop-color:#E74510"/>
	<stop  offset="0.1421" style="stop-color:#EB5D1A"/>
	<stop  offset="0.3769" style="stop-color:#EF7B29"/>
	<stop  offset="0.6035" style="stop-color:#F28F35"/>
	<stop  offset="0.8159" style="stop-color:#F59B3D"/>
	<stop  offset="1" style="stop-color:#F59F40"/>
</linearGradient>
<path class="st0" d="M43.6,13.6c-0.2-2-1.3-6.8-2-8.6c0.1,0.5,0,3.1,0,3.6c-0.5,3.9-2.8,7.3-5.8,9.7c-3.4,2.7-7.8,3.4-11.5,5.6
	C15.5,28.8,14,39.3,19,47.5c0,0-4.8-10.4,8.3-16.5c4.6-2.2,9.7-4.5,13.3-8.2C43.2,20.2,44,17.2,43.6,13.6z"/>
<linearGradient id="SVGID_2_" gradientUnits="userSpaceOnUse" x1="12.679" y1="35.3425" x2="40.572" y2="35.3425" gradientTransform="matrix(1 0 0 -1 0 55)">
	<stop  offset="0" style="stop-color:#E74510"/>
	<stop  offset="0.1421" style="stop-color:#EB5D1A"/>
	<stop  offset="0.3769" style="stop-color:#EF7B29"/>
	<stop  offset="0.6035" style="stop-color:#F28F35"/>
	<stop  offset="0.8159" style="stop-color:#F59B3D"/>
	<stop  offset="1" style="stop-color:#F59F40"/>
</linearGradient>
<path class="st1" d="M40.5,4c-0.1-1.3-0.2-2.3-0.6-3.4c-1.5,4.2-4.7,7.9-8.4,10.3c-1.9,1.3-3.6,2.1-6.1,2.7
	c-4.1,1.1-7.5,2.8-9.9,6.4c-2.1,3.2-3.2,7.1-2.8,10.9c0.3,2.7,1.1,5.3,2.4,7.6c0,0,0,0,0,0c0.1,0-1.5-5.7,1-9.5
	c4.7-7.4,10.5-7.9,16.3-10.9c2.7-1.4,5.8-4.3,7-7.1C40.3,9,40.7,6.2,40.5,4z"/>
<linearGradient id="SVGID_3_" gradientUnits="userSpaceOnUse" x1="15.7879" y1="37.1365" x2="15.7879" y2="49.6405" gradientTransform="matrix(1 0 0 -1 0 55)">
	<stop  offset="0" style="stop-color:#E74510"/>
	<stop  offset="0.1421" style="stop-color:#EB5D1A"/>
	<stop  offset="0.3769" style="stop-color:#EF7B29"/>
	<stop  offset="0.6035" style="stop-color:#F28F35"/>
	<stop  offset="0.8159" style="stop-color:#F59B3D"/>
	<stop  offset="1" style="stop-color:#F59F40"/>
</linearGradient>
<path class="st4" d="M15.6,5.4c0,0-0.4-0.1-1.1-0.1c-1.6,0-4.8,0.4-8,3.3c0,0,0.1,1.5-1.1,1.9c0,0-1.1,1.3,0,2.8
	C6.4,14.9,6.7,15,6.7,15c0,0,0,0,0,0S6,13.4,9.4,13.4c0.3,0,0.7,0,1.2,0.1c4.8,0.4,5.1,4.4,5.1,4.4s3.1-4.2,11.1-5.7
	C26.8,12.1,23.2,5.8,15.6,5.4z M10.2,9.7L8,9.4L11.4,8L10.2,9.7z"/>
</svg>
